rival_teams,match,Rivales,Cimarrones,scheme_rival,scheme_team
Tlaxcala,Tlaxcala - Cimarrones de Sonora 2:0,44.44,55.56,5-3-2,5-3-2
Tapatío,Cimarrones de Sonora - Tapatío 2:1,34.42,65.58,3-4-3,4-3-1-2
Tepatitlán,Cimarrones de Sonora - Tepatitlán de Morelos 2:0,61.44,38.56,4-2-3-1,4-3-1-2
Mineros,Mineros de Zacatecas - Cimarrones de Sonora 1:1,64.06,35.94,4-1-4-1,3-4-2-1
Cancún,Cimarrones de Sonora - Cancún 0:1,30.81,69.19,4-5-1,4-3-1-2
Venados,Cimarrones de Sonora - Venados 1:1,48.85,51.15,4-2-3-1,3-4-1-2
Pumas,Pumas Tabasco - Cimarrones de Sonora 2:2,59.42,40.58,3-4-3,3-4-3
