metrics,values,mean_metrics,this_match
xG,-2.1577601488679488,1.2316666666666667,0.33
Recuparación baja,-0.6665897864649847,32.666666666666664,27
Recuperación media,0.4107200484084538,34.666666666666664,38
Recuperación alta,-2.041241452319315,11.5,9
Posesión,0.3758731791931479,50.166666666666664,55.56
Pases por posesión,-0.14996921356227455,3.4266666666666667,3.31
Contra ataque,-0.16951587590520267,1.1666666666666667,1
Disparos en contra,-0.2439750182371334,3.3333333333333335,3
Pérdidas bajas,-0.7674432854301004,15.166666666666666,9
Pérdidas medias,-0.31859415099641614,35.333333333333336,32
Pérdidas altas,-4.626813958590446,56.666666666666664,51
Distancia de los disparos,1.8592362609919322,17.52,22.24
PDA,-0.4279587124363822,8.418333333333333,6.58
